{
  "version": "13.1.0",
  "vulnerabilities": [
    {
      "id": "ceee43d5f705dca1d5a93f24992b6cff7039efff3201930e2d287f4ac53f30c2",
      "category": "secret_detection",
      "name": "AWS Access Key",
      "message": "AWS Access Key detected; please remove and revoke it if this is a leak.",
      "description": "AWS Access Key",
      "cve": "keys/aws:4dc0376c1c8fd35a454f62ea011e80b28b512fdea09cfb476169ed4ca26c1460:AWS Access Key",
      "severity": "Critical",
      "confidence": "Unknown",
      "raw_source_code_extract": "AKIAXYZDQCENR3HDDQGL",
      "scanner": {
        "id": "gitleaks",
        "name": "Gitleaks"
      },
      "location": {
        "file": "keys/aws",
        "commit": {
          "date": "0001-01-01T00:00:00Z",
          "sha": "0000000"
        },
        "start_line": 2,
        "end_line": 2
      },
      "identifiers": [
        {
          "type": "gitleaks_rule_id",
          "name": "Gitleaks rule ID AWS Access Key",
          "value": "AWS Access Key"
        }
      ]
    },
    {
      "id": "255d07be7dde4e05ca7b3af28de1140761dca6ef0e5579be5d8b3a783b9a815a",
      "category": "secret_detection",
      "name": "Asymmetric Private Key",
      "message": "Asymmetric Private Key detected; please remove and revoke it if this is a leak.",
      "description": "Asymmetric Private Key",
      "cve": "id_rsa:8bcac7908eb950419537b91e19adc83ce2c9cbfdacf4f81157fdadfec11f7017:Asymmetric Private Key",
      "severity": "Critical",
      "confidence": "Unknown",
      "raw_source_code_extract": "-----BEGIN RSA PRIVATE KEY-----",
      "scanner": {
        "id": "gitleaks",
        "name": "Gitleaks"
      },
      "location": {
        "file": "id_rsa",
        "commit": {
          "date": "0001-01-01T00:00:00Z",
          "sha": "0000000"
        },
        "start_line": 1,
        "end_line": 1
      },
      "identifiers": [
        {
          "type": "gitleaks_rule_id",
          "name": "Gitleaks rule ID Asymmetric Private Key",
          "value": "Asymmetric Private Key"
        }
      ]
    },
    {
      "id": "4163b1226130c1af48500e730c1b41be6681ff46529df8c5c0aac92f203ba3e3",
      "category": "secret_detection",
      "name": "Stripe API key",
      "message": "Stripe API key detected; please remove and revoke it if this is a leak.",
      "description": "Stripe API key",
      "cve": "keys/stripe_key:48c1ba96833a7854a85ac61c63de12db30c21d51c295a48a9ac4fc4d55641bc3:Stripe API key",
      "severity": "Critical",
      "confidence": "Unknown",
      "raw_source_code_extract": "STRIPE_KEY=sk_live_4eC39HqLyjWDarjtT1zdp7dc",
      "scanner": {
        "id": "gitleaks",
        "name": "Gitleaks"
      },
      "location": {
        "file": "keys/stripe_key",
        "commit": {
          "date": "0001-01-01T00:00:00Z",
          "sha": "0000000"
        },
        "start_line": 2,
        "end_line": 2
      },
      "identifiers": [
        {
          "type": "gitleaks_rule_id",
          "name": "Gitleaks rule ID Stripe API key",
          "value": "Stripe API key"
        }
      ]
    },
    {
      "id": "92337d573699d2d8b56042c914610c60c12e43bfbd90d0e77cd333c505597270",
      "category": "secret_detection",
      "name": "Stripe API key",
      "message": "Stripe API key detected; please remove and revoke it if this is a leak.",
      "description": "Stripe API key",
      "cve": "keys/stripe_key:b16fde3720cf87e8f5a98a1838d8aba1e4137581ac5cc64138525885bece2f2f:Stripe API key",
      "severity": "Critical",
      "confidence": "Unknown",
      "raw_source_code_extract": "STRIPE_RESTRICTED_KEY=rk_live_4eC39HqLyjWDarjtT1zdp7dc",
      "scanner": {
        "id": "gitleaks",
        "name": "Gitleaks"
      },
      "location": {
        "file": "keys/stripe_key",
        "commit": {
          "date": "0001-01-01T00:00:00Z",
          "sha": "0000000"
        },
        "start_line": 3,
        "end_line": 3
      },
      "identifiers": [
        {
          "type": "gitleaks_rule_id",
          "name": "Gitleaks rule ID Stripe API key",
          "value": "Stripe API key"
        }
      ]
    },
    {
      "id": "2a8c79fb095c944ee9192af34a6b6edc19f8cbd3a5878150cea9fcd09e8118a7",
      "category": "secret_detection",
      "name": "Slack",
      "message": "Slack detected; please remove and revoke it if this is a leak.",
      "description": "Slack",
      "cve": "keys/slack_key:a3d4d73ddd6fdcb519e9be3e834a091ff75a8a4a193f7378e9ed3a4cfdb6839c:Slack",
      "severity": "Critical",
      "confidence": "Unknown",
      "raw_source_code_extract": "xoxp-905439787527",
      "scanner": {
        "id": "gitleaks",
        "name": "Gitleaks"
      },
      "location": {
        "file": "keys/slack_key",
        "commit": {
          "date": "0001-01-01T00:00:00Z",
          "sha": "0000000"
        },
        "start_line": 2,
        "end_line": 2
      },
      "identifiers": [
        {
          "type": "gitleaks_rule_id",
          "name": "Gitleaks rule ID Slack",
          "value": "Slack"
        }
      ]
    },
    {
      "id": "aaae0a8dd44157ca85b9759532dbf42c85035cdb3578b08628f3134aac8ce43f",
      "category": "secret_detection",
      "name": "Google (GCP) Service Account",
      "message": "Google (GCP) Service Account detected; please remove and revoke it if this is a leak.",
      "description": "Google (GCP) Service Account",
      "cve": "keys/testkeys-110044-23ecb974342473e425f395ddd5f8f787ac6be90d.json:f8c792f8e908ff42f50978a418f4e9bb365deb4022ad2d51302cd304378b6fbb:Google (GCP) Service Account",
      "severity": "Critical",
      "confidence": "Unknown",
      "raw_source_code_extract": "\"type\": \"service_account\"",
      "scanner": {
        "id": "gitleaks",
        "name": "Gitleaks"
      },
      "location": {
        "file": "keys/testkeys-110044-23ecb974342473e425f395ddd5f8f787ac6be90d.json",
        "commit": {
          "date": "0001-01-01T00:00:00Z",
          "sha": "0000000"
        },
        "start_line": 2,
        "end_line": 2
      },
      "identifiers": [
        {
          "type": "gitleaks_rule_id",
          "name": "Gitleaks rule ID Google (GCP) Service Account",
          "value": "Google (GCP) Service Account"
        }
      ]
    },
    {
      "id": "f2db3941f7bd80622327378ddc870874594e4c19548092b38aca8e5fc4cbac23",
      "category": "secret_detection",
      "name": "Asymmetric Private Key",
      "message": "Asymmetric Private Key detected; please remove and revoke it if this is a leak.",
      "description": "Asymmetric Private Key",
      "cve": "keys/pgp_rsa_key:8a1ddaa7dab83b9a5ffe092bc3aad1df30c2e0be6246aee0a0da616d628d1da7:Asymmetric Private Key",
      "severity": "Critical",
      "confidence": "Unknown",
      "raw_source_code_extract": "-----BEGIN PGP PRIVATE KEY BLOCK-----",
      "scanner": {
        "id": "gitleaks",
        "name": "Gitleaks"
      },
      "location": {
        "file": "keys/pgp_rsa_key",
        "commit": {
          "date": "0001-01-01T00:00:00Z",
          "sha": "0000000"
        },
        "start_line": 1,
        "end_line": 1
      },
      "identifiers": [
        {
          "type": "gitleaks_rule_id",
          "name": "Gitleaks rule ID Asymmetric Private Key",
          "value": "Asymmetric Private Key"
        }
      ]
    },
    {
      "id": "19954123f0fbd056be5cc89faf4ad687a0108064aef15a32ed9aae036ba243b7",
      "category": "secret_detection",
      "name": "AWS Access Key",
      "message": "AWS Access Key detected; please remove and revoke it if this is a leak.",
      "description": "AWS Access Key",
      "cve": "main.php:1a5d44a2dca19669d72edf4c4f1c27c4c1ca4b4408fbb17f6ce4ad452d78ddb3:AWS Access Key",
      "severity": "Critical",
      "confidence": "Unknown",
      "raw_source_code_extract": "AKIAIOSFODNN7EXAMPLE",
      "scanner": {
        "id": "gitleaks",
        "name": "Gitleaks"
      },
      "location": {
        "file": "main.php",
        "commit": {
          "date": "0001-01-01T00:00:00Z",
          "sha": "0000000"
        },
        "start_line": 10,
        "end_line": 10
      },
      "identifiers": [
        {
          "type": "gitleaks_rule_id",
          "name": "Gitleaks rule ID AWS Access Key",
          "value": "AWS Access Key"
        }
      ]
    },
    {
      "id": "a169ba360423a744a8ce75619b290ba4ced61ca395f935720cd2813986ba8a97",
      "category": "secret_detection",
      "name": "Asymmetric Private Key",
      "message": "Asymmetric Private Key detected; please remove and revoke it if this is a leak.",
      "description": "Asymmetric Private Key",
      "cve": "keys/rsa_key:03d104c669e3c7b6be7f989db8b12c8b910d3be8c1e2a73c9369d3cc0ba803b5:Asymmetric Private Key",
      "severity": "Critical",
      "confidence": "Unknown",
      "raw_source_code_extract": "-----BEGIN OPENSSH PRIVATE KEY-----",
      "scanner": {
        "id": "gitleaks",
        "name": "Gitleaks"
      },
      "location": {
        "file": "keys/rsa_key",
        "commit": {
          "date": "0001-01-01T00:00:00Z",
          "sha": "0000000"
        },
        "start_line": 1,
        "end_line": 1
      },
      "identifiers": [
        {
          "type": "gitleaks_rule_id",
          "name": "Gitleaks rule ID Asymmetric Private Key",
          "value": "Asymmetric Private Key"
        }
      ]
    },
    {
      "id": "9c2ae0e6f36f23d8871bea9d54ece4a141946b96bd7854286b69e88b6e46f6ab",
      "category": "secret_detection",
      "name": "AWS Secret Key",
      "message": "AWS Secret Key detected; please remove and revoke it if this is a leak.",
      "description": "AWS Secret Key",
      "cve": "main.php:9ccfbb7a732550d83974e51bbf837427415b05ffb74c2d3af2c1fac544fc58da:AWS Secret Key",
      "severity": "Critical",
      "confidence": "Unknown",
      "raw_source_code_extract": "AWS_KEY = \"wJalrXUtnFEMI/K7MDENG/bPxRfiCYEXAMPLEKEY\"",
      "scanner": {
        "id": "gitleaks",
        "name": "Gitleaks"
      },
      "location": {
        "file": "main.php",
        "commit": {
          "date": "0001-01-01T00:00:00Z",
          "sha": "0000000"
        },
        "start_line": 11,
        "end_line": 11
      },
      "identifiers": [
        {
          "type": "gitleaks_rule_id",
          "name": "Gitleaks rule ID AWS Secret Key",
          "value": "AWS Secret Key"
        }
      ]
    },
    {
      "id": "c5d1790de560dd3179fd937af4402e6f68120ca65e0467bad5c39fec75f168aa",
      "category": "secret_detection",
      "name": "Asymmetric Private Key",
      "message": "Asymmetric Private Key detected; please remove and revoke it if this is a leak.",
      "description": "Asymmetric Private Key",
      "cve": "keys/ed25519_key:03d104c669e3c7b6be7f989db8b12c8b910d3be8c1e2a73c9369d3cc0ba803b5:Asymmetric Private Key",
      "severity": "Critical",
      "confidence": "Unknown",
      "raw_source_code_extract": "-----BEGIN OPENSSH PRIVATE KEY-----",
      "scanner": {
        "id": "gitleaks",
        "name": "Gitleaks"
      },
      "location": {
        "file": "keys/ed25519_key",
        "commit": {
          "date": "0001-01-01T00:00:00Z",
          "sha": "0000000"
        },
        "start_line": 1,
        "end_line": 1
      },
      "identifiers": [
        {
          "type": "gitleaks_rule_id",
          "name": "Gitleaks rule ID Asymmetric Private Key",
          "value": "Asymmetric Private Key"
        }
      ]
    },
    {
      "id": "27003058b19993773359c2f083d330591a1ba8677b07a469ae1dc9e25a1bee6b",
      "category": "secret_detection",
      "name": "Asymmetric Private Key",
      "message": "Asymmetric Private Key detected; please remove and revoke it if this is a leak.",
      "description": "Asymmetric Private Key",
      "cve": "keys/pgp_ecc_key:8a1ddaa7dab83b9a5ffe092bc3aad1df30c2e0be6246aee0a0da616d628d1da7:Asymmetric Private Key",
      "severity": "Critical",
      "confidence": "Unknown",
      "raw_source_code_extract": "-----BEGIN PGP PRIVATE KEY BLOCK-----",
      "scanner": {
        "id": "gitleaks",
        "name": "Gitleaks"
      },
      "location": {
        "file": "keys/pgp_ecc_key",
        "commit": {
          "date": "0001-01-01T00:00:00Z",
          "sha": "0000000"
        },
        "start_line": 1,
        "end_line": 1
      },
      "identifiers": [
        {
          "type": "gitleaks_rule_id",
          "name": "Gitleaks rule ID Asymmetric Private Key",
          "value": "Asymmetric Private Key"
        }
      ]
    },
    {
      "id": "afc6f7e757a860528f51178f532f5fc62388492d87605ff43ece849be75a9852",
      "category": "secret_detection",
      "name": "Asymmetric Private Key",
      "message": "Asymmetric Private Key detected; please remove and revoke it if this is a leak.",
      "description": "Asymmetric Private Key",
      "cve": "keys/dsa_key:03d104c669e3c7b6be7f989db8b12c8b910d3be8c1e2a73c9369d3cc0ba803b5:Asymmetric Private Key",
      "severity": "Critical",
      "confidence": "Unknown",
      "raw_source_code_extract": "-----BEGIN OPENSSH PRIVATE KEY-----",
      "scanner": {
        "id": "gitleaks",
        "name": "Gitleaks"
      },
      "location": {
        "file": "keys/dsa_key",
        "commit": {
          "date": "0001-01-01T00:00:00Z",
          "sha": "0000000"
        },
        "start_line": 1,
        "end_line": 1
      },
      "identifiers": [
        {
          "type": "gitleaks_rule_id",
          "name": "Gitleaks rule ID Asymmetric Private Key",
          "value": "Asymmetric Private Key"
        }
      ]
    },
    {
      "id": "bbd52e52b7c2f5d9f79ff0f6b0d1c63754f298077f043165d5c11aad10e96941",
      "category": "secret_detection",
      "name": "Asymmetric Private Key",
      "message": "Asymmetric Private Key detected; please remove and revoke it if this is a leak.",
      "description": "Asymmetric Private Key",
      "cve": "main.php:8bcac7908eb950419537b91e19adc83ce2c9cbfdacf4f81157fdadfec11f7017:Asymmetric Private Key",
      "severity": "Critical",
      "confidence": "Unknown",
      "raw_source_code_extract": "-----BEGIN RSA PRIVATE KEY-----",
      "scanner": {
        "id": "gitleaks",
        "name": "Gitleaks"
      },
      "location": {
        "file": "main.php",
        "commit": {
          "date": "0001-01-01T00:00:00Z",
          "sha": "0000000"
        },
        "start_line": 14,
        "end_line": 14
      },
      "identifiers": [
        {
          "type": "gitleaks_rule_id",
          "name": "Gitleaks rule ID Asymmetric Private Key",
          "value": "Asymmetric Private Key"
        }
      ]
    },
    {
      "id": "993e50a2aabd9ce32e268a9be33eac8c5d4bc8ff4cab1b86a33c6a6f855e0aea",
      "category": "secret_detection",
      "name": "Asymmetric Private Key",
      "message": "Asymmetric Private Key detected; please remove and revoke it if this is a leak.",
      "description": "Asymmetric Private Key",
      "cve": "keys/ecdsa_key:03d104c669e3c7b6be7f989db8b12c8b910d3be8c1e2a73c9369d3cc0ba803b5:Asymmetric Private Key",
      "severity": "Critical",
      "confidence": "Unknown",
      "raw_source_code_extract": "-----BEGIN OPENSSH PRIVATE KEY-----",
      "scanner": {
        "id": "gitleaks",
        "name": "Gitleaks"
      },
      "location": {
        "file": "keys/ecdsa_key",
        "commit": {
          "date": "0001-01-01T00:00:00Z",
          "sha": "0000000"
        },
        "start_line": 1,
        "end_line": 1
      },
      "identifiers": [
        {
          "type": "gitleaks_rule_id",
          "name": "Gitleaks rule ID Asymmetric Private Key",
          "value": "Asymmetric Private Key"
        }
      ]
    },
    {
      "id": "83870dbc9da2164eecb18fb6f4f7991df6cd6158c6caa35e1a152f1223014659",
      "category": "secret_detection",
      "name": "Asymmetric Private Key",
      "message": "Asymmetric Private Key detected; please remove and revoke it if this is a leak.",
      "description": "Asymmetric Private Key",
      "cve": "keys/testkeys-110044-23ecb974342473e425f395ddd5f8f787ac6be90d.json:3021d90eb9437b2d8f30e8363695c4418b5e5f1870801b5c317e9398ee0f572d:Asymmetric Private Key",
      "severity": "Critical",
      "confidence": "Unknown",
      "raw_source_code_extract": "-----BEGIN PRIVATE KEY-----",
      "scanner": {
        "id": "gitleaks",
        "name": "Gitleaks"
      },
      "location": {
        "file": "keys/testkeys-110044-23ecb974342473e425f395ddd5f8f787ac6be90d.json",
        "commit": {
          "date": "0001-01-01T00:00:00Z",
          "sha": "0000000"
        },
        "start_line": 5,
        "end_line": 5
      },
      "identifiers": [
        {
          "type": "gitleaks_rule_id",
          "name": "Gitleaks rule ID Asymmetric Private Key",
          "value": "Asymmetric Private Key"
        }
      ]
    }
  ],
  "remediations": [],
  "scan": {
    "scanner": {
      "id": "",
      "name": "",
      "vendor": {
        "name": ""
      },
      "version": ""
    },
    "type": ""
  }
}