[
 {
  "line": "const AWS_ID = \"AKIAIOSFODNN7EXAMPLE\"",
  "lineNumber": 12,
  "offender": "AKIAIOSFODNN7EXAMPLE",
  "commit": "9df28059eb841ed884ebe335849dcfa63e635c5e",
  "repo": ".",
  "repoURL": "",
  "leakURL": "",
  "rule": "AWS Access Key",
  "commitMessage": "Another AWS Key",
  "author": "Zach Rice",
  "email": "zrice@gitlab.com",
  "file": "main.php",
  "date": "2020-09-01T13:04:36Z",
  "tags": "key, AWS"
 }
]
